…
The separation of the document into individual words makes it possible to see how many times each word was used in the text. To do so, we first apply the
table function to the words in the first (and here, only) document and then split
apart the names and values of the table into a single object called a data frame.
Data frames in R are used similarly to the way a table is used in a database.
These steps, along with printing out the result, are accomplished by the following
lines of code:

tab <- table(words[[1]])
tab <- data_frame(word = names(tab), count = as.numeric(tab))
tab

The output from this command should look like this in your console (a tibble is a specific variety of a data frame created by the tidydata package):

# A tibble: 71 × 2
         word count
        <chr> <dbl>
1           a     1
2       abuse     2
3     achieve     1
4       again     1
5          an     1
6         and     4
7  appreciate     1
8    approach     1
9         are     2
10         at     1
# ... with 61 more rows

There is substantial amount of information in this display. We see that there are 71 unique words, as given by the dimensions of the table at the top. The first 10 rows of the dataset are printed, with the second column showing how many times the word in the first column was used. For example, "and" was used 4 times but "achieve" was used only once.

We can also sort the table using the arrange function. The arrange function takes the dataset to be worked on, here tab, and then the name of the column to arrange by. The desc function in the second argument indicates that we want to sort in descending order.

arrange(tab, desc(count))

And the output will now be:

# A tibble: 71 × 2
    word count
   <chr> <dbl>
1    and     4
2      i     3
3    the     3
4     we     3
5   year     3
6  abuse     2
7    are     2
8    for     2
9     so     2
10  that     2
# ... with 61 more rows
…
words <- tokenize_words(text)
length(words[[1]])

From the output we see that this speech contains a total of 6113 words. Combining the table, data_frame, and arrange functions exactly as we did on the small example, shows the most frequently used words in the entire speech. Notice as you run this how easily we are able to re-use our prior code to repeat an analysis on a new set of data; this is one of the strongest benefits of using a programming language to run a data-based analysis.

tab <- table(words[[1]])
tab <- data_frame(word = names(tab), count = as.numeric(tab))
tab <- arrange(tab, desc(count))
tab

The output here should look like this:

# A tibble: 1,590 × 2
    word count
   <chr> <dbl>
1    the   281
2     to   209
3    and   189
4     of   148
5   that   125
6     we   124
7      a   120
8     in   105
9    our    96
10    is    72
# ... with 1,580 more rows
…
The first column lists the language (always "en" for English in this case), the second gives the word and the third the percentage of the Trillion Word Corpus consisting of the given word. For example, the word "for" occurs almost exactly in 1 out of every 100 words, at least for text on websites indexed by Google.

To combine these overall word frequencies with the dataset tab constructed from this one State of the Union speech, we can utilize the inner_join function. This function takes two data sets and combines them on all commonly named columns; in this case the common column is the one named "word".

tab <- inner_join(tab, wf)
tab

Notice that our dataset now has two extra columns giving the language (relatively
unhelpful as this is always equal to "en") and the frequency of the word over a large external corpus. This second new column will be very helpful as we can filter for rows that have a frequency less than 0.1%, that is, occurring more than once in every 1000 words.

filter(tab, frequency < 0.1)

Which outputs the following:

# A tibble: 1,457 × 4
       word count language  frequency
      <chr> <dbl>    <chr>      <dbl>
1   america    28       en 0.02316088
2    people    27       en 0.08166699
3      just    25       en 0.07869701
4     world    23       en 0.07344269
5  american    22       en 0.03868825
6      work    22       en 0.07132574
7      make    20       en 0.06887739
8      want    19       en 0.04398566
9    change    18       en 0.03580897
10    years    18       en 0.05744387
# ... with 1,447 more rows

This list is starting to look a bit more interesting. A term such as "america" floats
to the top because we might speculate that it is used a lot in speeches by politicians, but relatively less so in other domains. Setting the threshold even lower, to 0.002, gives an even better summary of the speech. It will be useful to see more than the default first ten lines here, so we will use the print function along with the option n set to 15 in order to print out more than the default 10 values.

print(filter(tab, frequency < 0.002), n = 15)

Which now gives the following result:

# A tibble: 463 × 4
          word count language    frequency
         <chr> <dbl>    <chr>        <dbl>
1     laughter    11       en 0.0006433418
2       voices     8       en 0.0018923179
3       allies     4       en 0.0008442300
4       harder     4       en 0.0015197009
5        qaida     4       en 0.0001831486
6   terrorists     4       en 0.0012207035
7   bipartisan     3       en 0.0001451991
8  generations     3       en 0.0012275704
9        stamp     3       en 0.0016595929
10   strongest     3       en 0.0005913999
11       syria     3       en 0.0013626227
12   terrorist     3       en 0.0018103454
13     tougher     3       en 0.0002466358
14      weaken     3       en 0.0001806348
15  accelerate     2       en 0.0005439790
# ... with 448 more rows

Now, these seem to suggest some of the key themes of the speech such as "syria", "terrorist", and "qaida" (al-qaida is split into "al" and "qaida" by the tokenizer).

Document Summarization

To supply contextual information for the dataset we are analyzing we have provided a table with metadata about each State of the Union speech. Let us read that into R now:

metadata <- read_csv(sprintf("%s/%s", base_url, "metadata.csv"))
metadata

The first ten rows of the dataset will be printed; they should look like this:

# A tibble: 236 × 4
           president  year       party sotu_type
               <chr> <int>       <chr>     <chr>
1  George Washington  1790 Nonpartisan    speech
2  George Washington  1790 Nonpartisan    speech
3  George Washington  1791 Nonpartisan    speech
4  George Washington  1792 Nonpartisan    speech
5  George Washington  1793 Nonpartisan    speech
6  George Washington  1794 Nonpartisan    speech
7  George Washington  1795 Nonpartisan    speech
8  George Washington  1796 Nonpartisan    speech
9         John Adams  1797  Federalist    speech
10        John Adams  1798  Federalist    speech
# ... with 226 more rows
…
