…
length(palavras[[1]])

O resultado é 100, indicando que existem 100 palavras neste parágrafo.

A separação do documento em palavras individuais torna possível calcular quantas vezes cada palavra foi utilizada durante o texto. Para fazer isso, primeiro aplicamos a função table (tabela) nas palavras do primeiro (e, neste caso, único) documento e depois separamos os nomes e os valores da tabela num novo objeto chamado data frame. O uso de um quadro de dados em R é semelhante ao uso de uma tabela numa base de dados. Esses passos, em conjunto com a impressão do resultado, são obtidos com as seguintes linhas de código:

tabela <- table(palavras[[1]])

tabela <- data_frame(palavra = names(tabela), contagem = as.numeric(tabela))

tabela

O resultado deste comando deve aparecer assim no seu console (tibble é um tipo específico de data frame criado no pacote Tidy Data):

# A tibble: 77 x 2

palavra contagem

<chr> <dbl>

1 a 4.

2 ambos 1.

3 ano 3.

4 ao 1.

5 aprecio 1.

6 aprovar 1.

7 as 2.

8 às 1.

9 assim 1.

10 assistência 1.

# ... with 67 more rows

Há uma quantidade substancial de informação nesta amostra. Vemos que existem 77 palavras únicas, como indica a dimensão da tabela. As 10 primeiras fileiras do conjunto de dados são apresentadas, com a segunda coluna mostrando quantas vezes a palavra da primeira coluna foi utilizada. Por exemplo, “ano” foi usada três vezes, enquanto “aprovar”, apenas uma vez.

Também podemos ordenar a tabela usando a função arrange (organizar). Esta função precisa do conjunto de dados a utilizar, aqui tabela, e depois o nome da coluna que serve de referência para ordená-lo. A função desc no segundo argumento indica que queremos ordenar em ordem decrescente.

arrange(tabela, desc(contagem))

E agora o resultado será:

# A tibble: 77 x 2

palavra contagem

<chr> <dbl>

1 que 5.

2 a  4.

3 ano 3.

4 e  3.

5 os 3.

6 as 2.

7 da 2.

8 de 2.

9 este 2.

10 o 2.

# … with 67 more rows
…
